core_cm4.h:1702:26:ITM_SendChar	16	static
syscalls.c:54:6:initialise_monitor_handles	4	static
syscalls.c:58:5:_getpid	4	static
syscalls.c:64:5:_gettimeofday	16	static
syscalls.c:70:5:_kill	16	static
syscalls.c:76:6:_exit	16	static
syscalls.c:81:5:_write	32	static
syscalls.c:92:8:_sbrk	24	static
syscalls.c:108:5:_close	16	static
syscalls.c:115:5:_fstat	16	static
syscalls.c:121:5:_isatty	16	static
syscalls.c:127:5:_lseek	24	static
syscalls.c:133:5:_read	24	static
syscalls.c:139:5:_readlink	24	static
syscalls.c:145:5:_open	24	static
syscalls.c:151:5:_wait	16	static
syscalls.c:157:5:_unlink	16	static
syscalls.c:163:5:_times	16	static
syscalls.c:169:5:_stat	16	static
syscalls.c:175:5:_symlink	16	static
syscalls.c:181:5:_link	16	static
syscalls.c:187:5:_fork	4	static
syscalls.c:193:5:_execve	24	static
