core_cm4.h:1702:26:ITM_SendChar	16	static
syscalls.c:52:6:initialise_monitor_handles	4	static
syscalls.c:56:5:_getpid	4	static
syscalls.c:62:5:_gettimeofday	16	static
syscalls.c:68:5:_kill	16	static
syscalls.c:74:6:_exit	16	static
syscalls.c:79:5:_write	32	static
syscalls.c:91:8:_sbrk	24	static
syscalls.c:107:5:_close	16	static
syscalls.c:114:5:_fstat	16	static
syscalls.c:120:5:_isatty	16	static
syscalls.c:126:5:_lseek	24	static
syscalls.c:132:5:_read	24	static
syscalls.c:138:5:_readlink	24	static
syscalls.c:144:5:_open	24	static
syscalls.c:150:5:_wait	16	static
syscalls.c:156:5:_unlink	16	static
syscalls.c:162:5:_times	16	static
syscalls.c:168:5:_stat	16	static
syscalls.c:174:5:_symlink	16	static
syscalls.c:180:5:_link	16	static
syscalls.c:186:5:_fork	4	static
syscalls.c:192:5:_execve	24	static
